{
  "project_info": {
    "project_number": "390116847765",
    "project_id": "rewhite-delivery-1013"
  },
  "client": [
    {
      "client_info": {
        "mobilesdk_app_id": "1:390116847765:android:f2fd19601444f93c",
        "android_client_info": {
          "package_name": "me.rewhite.delivery"
        }
      },
      "oauth_client": [],
      "api_key": [
        {
          "current_key": "AIzaSyDO-O3onSaTfcY1XbSq04bWdawlNIoVjXA"
        }
      ],
      "services": {
        "analytics_service": {
          "status": 2,
          "analytics_property": {
            "tracking_id": "UA-65272889-3"
          }
        },
        "appinvite_service": {
          "status": 1,
          "other_platform_oauth_client": []
        },
        "ads_service": {
          "status": 1
        }
      }
    }
  ],
  "configuration_version": "1"
}